Journal (reproducible report)
…
# Load libraries ----
library(tidyverse)
library(readxl)

# Importing Files ----
bikeshops_tbl <- read_excel("data-science/00_data/01_bike_sales/01_raw_data/bikeshops.xlsx")

bikes_tbl      <- read_excel(path = "data-science/00_data/01_bike_sales/01_raw_data/bikes.xlsx")
orderlines_tbl <- read_excel("data-science/00_data/01_bike_sales/01_raw_data/orderlines.xlsx")

# Examining Data ----
bikeshops_tbl

## # A tibble: 30 x 5
##    bikeshop.id name                  location                          lat   lng
##          <dbl> <chr>                 <chr>                           <dbl> <dbl>
##  1           1 Zum Goldenen Lenker   Berlin, Berlin                   52.5 13.4 
##  2           2 AlexandeRad           Hamburg, Hamburg                 53.6 10.0 
##  3           3 Fahrradladen 16       Munich, Bavaria                  48.2 11.6 
##  4           4 Bikestation Köln      Cologne, North Rhine-Westphalia  50.9  6.95
##  5           5 Montimare             Frankfurt, Hesse                 50.1  8.68
##  6           6 fahrschneller         Stuttgart, Baden-Württemberg     48.8  9.18
##  7           7 Rad Ab                Düsseldorf, North Rhine-Westph…  51.2  6.79
##  8           8 Lucky Bike            Dortmund, North Rhine-Westphal…  51.5  7.47
##  9           9 Zweirad-Center Stadl… Essen, North Rhine-Westphalia    51.5  7.01
## 10          10 WITT-RAD              Bremen, Bremen                   53.1  8.83
## # … with 20 more rows
…
# Joining Data ----
bike_orderlines_joined_tbl <- orderlines_tbl %>%
  left_join(bikes_tbl, by = c("product.id" = "bike.id")) %>%
  left_join(bikeshops_tbl, by = c("customer.id" = "bikeshop.id"))

bike_orderlines_joined_tbl

## # A tibble: 15,644 x 19
##    ...1  order.id order.line order.date          customer.id product.id quantity
##    <chr>    <dbl>      <dbl> <dttm>                    <dbl>      <dbl>    <dbl>
##  1 1            1          1 2015-01-07 00:00:00           2       2681        1
##  2 2            1          2 2015-01-07 00:00:00           2       2411        1
##  3 3            2          1 2015-01-10 00:00:00          10       2629        1
##  4 4            2          2 2015-01-10 00:00:00          10       2137        1
##  5 5            3          1 2015-01-10 00:00:00           6       2367        1
##  6 6            3          2 2015-01-10 00:00:00           6       1973        1
##  7 7            3          3 2015-01-10 00:00:00           6       2422        1
##  8 8            3          4 2015-01-10 00:00:00           6       2655        1
##  9 9            3          5 2015-01-10 00:00:00           6       2247        1
## 10 10           4          1 2015-01-11 00:00:00          22       2408        1
## # … with 15,634 more rows, and 12 more variables: model <chr>,
## #   model.year <dbl>, frame.material <chr>, weight <dbl>, price <dbl>,
## #   category <chr>, gender <chr>, url <chr>, name <chr>, location <chr>,
## #   lat <dbl>, lng <dbl>
# Wrangling Data ----
bike_orderlines_wrangled_tbl <- bike_orderlines_joined_tbl %>% 
  separate(col = location, into = c("city", "state"), sep = ",") %>%
  mutate(revenue = price * quantity) %>%
  select(-...1, -(gender:url)) %>%
  select(-ends_with(".id")) %>%
  bind_cols(bike_orderlines_joined_tbl %>% select(order.id)) %>% 
  select(order.id, contains("order"), contains("model"), contains("city"), contains("state"), 
         price, quantity, revenue, everything()) %>%
  rename(bikeshop = name) %>%
  set_names(names(.) %>% str_replace_all("\\.", "_"))

bike_orderlines_wrangled_tbl

## # A tibble: 15,644 x 16
##    order_id order_line order_date          model model_year city  state price
##       <dbl>      <dbl> <dttm>              <chr>      <dbl> <chr> <chr> <dbl>
##  1        1          1 2015-01-07 00:00:00 Spec…       2021 Hamb… " Ha…  3119
##  2        1          2 2015-01-07 00:00:00 Ulti…       2020 Hamb… " Ha…  5359
##  3        2          1 2015-01-10 00:00:00 Neur…       2021 Brem… " Br…  2729
##  4        2          2 2015-01-10 00:00:00 Spee…       2019 Brem… " Br…  1749
##  5        3          1 2015-01-10 00:00:00 Stit…       2020 Stut… " Ba…  1219
##  6        3          2 2015-01-10 00:00:00 Road…       2020 Stut… " Ba…  1359
##  7        3          3 2015-01-10 00:00:00 Spee…       2020 Stut… " Ba…  2529
##  8        3          4 2015-01-10 00:00:00 Infl…       2021 Stut… " Ba…  1559
##  9        3          5 2015-01-10 00:00:00 Torq…       2020 Stut… " Ba…  3899
## 10        4          1 2015-01-11 00:00:00 Ulti…       2020 Augs… " Ba…  6629
## # … with 15,634 more rows, and 8 more variables: quantity <dbl>, revenue <dbl>,
## #   frame_material <chr>, weight <dbl>, category <chr>, bikeshop <chr>,
## #   lat <dbl>, lng <dbl>
…
sales_by_location_year_tbl <- bike_orderlines_wrangled_tbl %>%
  select(state, order_date, revenue) %>%
  mutate(year = year(order_date)) %>%
  group_by(state, year) %>%
  summarise(sales = sum(revenue)) %>%
  ungroup() %>%
  mutate(sales_text = scales::dollar(sales, big.mark = ".", 
                                     decimal.mark = ",'", 
                                     prefix = "",
                                     suffix = " €"))

sales_by_location_year_tbl

## # A tibble: 60 x 4
##    state                 year   sales sales_text 
##    <chr>                <dbl>   <dbl> <chr>      
##  1 " Baden-Württemberg"  2015 1031924 1.031.924 €
##  2 " Baden-Württemberg"  2016 1561658 1.561.658 €
##  3 " Baden-Württemberg"  2017 1224152 1.224.152 €
##  4 " Baden-Württemberg"  2018 1114327 1.114.327 €
##  5 " Baden-Württemberg"  2019 1589029 1.589.029 €
##  6 " Bavaria"            2015 1301461 1.301.461 €
##  7 " Bavaria"            2016 1129852 1.129.852 €
##  8 " Bavaria"            2017 1411851 1.411.851 €
##  9 " Bavaria"            2018 1168783 1.168.783 €
## 10 " Bavaria"            2019 1730872 1.730.872 €
## # … with 50 more rows
…
